<?xml version="1.0" encoding="UTF-8"?>
<svg width="15px" height="13px" viewBox="0 0 15 13" version="1.1" xmlns="http://www.w3.org/2000/svg" xmlns:xlink="http://www.w3.org/1999/xlink">
    <!-- Generator: Sketch 52.5 (67469) - http://www.bohemiancoding.com/sketch -->
    <title></title>
    <desc>Created with Sketch.</desc>
    <g id="UI/UX-Workflow-LIAN-CHAT" stroke="none" stroke-width="1" fill="none" fill-rule="evenodd" font-family="FontAwesome" font-size="15" font-weight="normal" line-spacing="30">
        <g id="03.1-Select-menu-dropdown" transform="translate(-188.000000, -118.000000)" fill="#4A4A4A">
            <g id="Dropdown-Copy" transform="translate(168.000000, 94.000000)">
                <text id="">
                    <tspan x="20" y="28"></tspan>
                </text>
            </g>
        </g>
    </g>
</svg>