<?xml version="1.0" encoding="UTF-8"?>
<svg width="16px" height="13px" viewBox="0 0 16 13" version="1.1" xmlns="http://www.w3.org/2000/svg" xmlns:xlink="http://www.w3.org/1999/xlink">
    <!-- Generator: Sketch 52.5 (67469) - http://www.bohemiancoding.com/sketch -->
    <title>fast</title>
    <desc>Created with Sketch.</desc>
    <g id="UI/UX-Workflow-LIAN-CHAT" stroke="none" stroke-width="1" fill="none" fill-rule="evenodd">
        <g id="14.-Explore" transform="translate(-283.000000, -74.000000)" fill="#3E4552">
            <g id="Top-Bar">
                <g id="Group" transform="translate(283.000000, 72.000000)">
                    <g id="fast" transform="translate(0.000000, 2.000000)">
                        <rect id="Rectangle" x="0.86528125" y="3.84375" width="1.8375" height="1"></rect>
                        <rect id="Rectangle" x="0.86528125" y="7.59375" width="1.8375" height="1"></rect>
                        <rect id="Rectangle" x="0" y="5.71875" width="2.7028125" height="1"></rect>
                        <path d="M9.820125,0.00765625 C6.4125625,0.00765625 3.64028125,2.7799375 3.64028125,6.1875 C3.64028125,9.5950625 6.41253125,12.3673437 9.820125,12.3673437 C13.2277188,12.3673437 16,9.5950625 16,6.1875 C16,2.7799375 13.2277188,0.00765625 9.820125,0.00765625 Z M9.820125,11.4298437 C6.9295,11.4298437 4.57778125,9.078125 4.57778125,6.1875 C4.57778125,3.296875 6.9295,0.94515625 9.820125,0.94515625 C12.7107813,0.94515625 15.0625,3.296875 15.0625,6.1875 C15.0625,9.078125 12.7107813,11.4298437 9.820125,11.4298437 Z" id="Shape" fill-rule="nonzero"></path>
                        <polygon id="Path" points="10.1228125 6.4204375 10.1228125 3.39240625 9.1853125 3.39240625 9.1853125 6.91603125 11.6011875 8.562375 12.1291562 7.78765625"></polygon>
                    </g>
                </g>
            </g>
        </g>
    </g>
</svg>