<?xml version="1.0" encoding="UTF-8"?>
<svg width="18px" height="13px" viewBox="0 0 18 13" version="1.1" xmlns="http://www.w3.org/2000/svg" xmlns:xlink="http://www.w3.org/1999/xlink">
    <!-- Generator: Sketch 52.5 (67469) - http://www.bohemiancoding.com/sketch -->
    <title>ion-ios-people - Ionicons</title>
    <desc>Created with Sketch.</desc>
    <g id="UI/UX-Workflow-LIAN-CHAT" stroke="none" stroke-width="1" fill="none" fill-rule="evenodd" font-family="Ionicons" font-size="20" font-weight="400" line-spacing="30">
        <g id="03.1-Select-menu-dropdown" transform="translate(-186.000000, -148.000000)" fill="#4A4A4A">
            <g id="Dropdown-Copy" transform="translate(168.000000, 94.000000)">
                <text id="ion-ios-people---Ionicons">
                    <tspan x="18" y="62"></tspan>
                </text>
            </g>
        </g>
    </g>
</svg>