<?xml version="1.0" encoding="UTF-8"?>
<svg width="21px" height="19px" viewBox="0 0 21 19" version="1.1" xmlns="http://www.w3.org/2000/svg" xmlns:xlink="http://www.w3.org/1999/xlink">
    <!-- Generator: Sketch 52.5 (67469) - http://www.bohemiancoding.com/sketch -->
    <title>Heart - simple-line-icons</title>
    <desc>Created with Sketch.</desc>
    <g id="UI/UX-Workflow-LIAN-CHAT" stroke="none" stroke-width="1" fill="none" fill-rule="evenodd">
        <g id="17--post-detail" transform="translate(-59.000000, -592.000000)" fill="#4A4A4A">
            <g id="Group-7" transform="translate(0.000000, 573.000000)">
                <g id="Group-3" transform="translate(59.000000, 19.000000)">
                    <path d="M5.625,1.4765625 C5.02603867,1.4765625 4.47916914,1.56770742 3.984375,1.75 C3.48958086,1.93229258 3.0273459,2.23176875 2.59765625,2.6484375 C2.1679666,3.09114805 1.83593867,3.59244512 1.6015625,4.15234375 C1.36718633,4.71224238 1.25,5.29817402 1.25,5.91015625 C1.25,6.52213848 1.36718633,7.10807012 1.6015625,7.66796875 C1.83593867,8.22786738 2.1679666,8.7226541 2.59765625,9.15234375 C2.75390703,9.30859453 3.17382471,9.76106396 3.85742188,10.5097656 C4.54101904,11.2584673 5.27668877,12.0657509 6.06445312,12.9316406 C6.85221748,13.7975304 7.59114238,14.6178347 8.28125,15.3925781 C8.97135762,16.1673216 9.41406152,16.6588531 9.609375,16.8671875 C9.68750039,16.932292 9.76236943,16.9746093 9.83398438,16.9941406 C9.90559932,17.013672 9.96744766,17.0234375 10.0195312,17.0234375 C10.0585939,17.0234375 10.1171871,17.013672 10.1953125,16.9941406 C10.2734379,16.9746093 10.3515621,16.932292 10.4296875,16.8671875 C11.2109414,16.0078082 12.0149698,15.1354211 12.8417969,14.25 C13.6686239,13.3645789 14.4173144,12.5572953 15.0878906,11.828125 C15.7584669,11.0989547 16.3118468,10.5000023 16.7480469,10.03125 C17.184247,9.56249766 17.4153645,9.32161465 17.4414062,9.30859375 C17.8710959,8.8658832 18.2031238,8.36458613 18.4375,7.8046875 C18.6718762,7.24478887 18.7890625,6.65885723 18.7890625,6.046875 C18.7890625,5.43489277 18.6718762,4.84896113 18.4375,4.2890625 C18.2031238,3.72916387 17.8710959,3.23437715 17.4414062,2.8046875 C16.9856748,2.34895605 16.5104191,2.01367295 16.015625,1.79882812 C15.5208309,1.5839833 14.9739613,1.4765625 14.375,1.4765625 C13.9322895,1.4765625 13.4016958,1.65885234 12.7832031,2.0234375 C12.1647104,2.38802266 11.5429719,2.88931973 10.9179688,3.52734375 L10.0390625,4.42578125 L9.140625,3.546875 C8.24218301,2.66145391 7.50976846,2.09505332 6.94335938,1.84765625 C6.37695029,1.60025918 5.93750156,1.4765625 5.625,1.4765625 Z M5.625,0.2265625 C6.39323301,0.2265625 7.15819932,0.473955859 7.91992188,0.96875 C8.68164443,1.46354414 9.38150723,2.02343438 10.0195312,2.6484375 C10.6315135,2.02343438 11.3248659,1.46354414 12.0996094,0.96875 C12.8743528,0.473955859 13.6328088,0.2265625 14.375,0.2265625 C15.143233,0.2265625 15.8528613,0.366535059 16.5039062,0.646484375 C17.1549512,0.926433691 17.7604139,1.35286172 18.3203125,1.92578125 C18.893232,2.48567988 19.3229152,3.12694951 19.609375,3.84960938 C19.8958348,4.57226924 20.0390625,5.30468379 20.0390625,6.046875 C20.0390625,6.78906621 19.8958348,7.52148076 19.609375,8.24414062 C19.3229152,8.96680049 18.893232,9.61458047 18.3203125,10.1875 C18.3072916,10.2005209 17.9329464,10.6009075 17.1972656,11.3886719 C16.4615849,12.1764362 15.6608116,13.042313 14.7949219,13.9863281 C13.9290321,14.9303433 13.1347692,15.7897097 12.4121094,16.5644531 L11.328125,17.7265625 C11.1458324,17.9088551 10.9407563,18.0455725 10.7128906,18.1367188 C10.4850249,18.227865 10.2539074,18.2734375 10.0195312,18.2734375 C9.77213418,18.2734375 9.53776152,18.227865 9.31640625,18.1367188 C9.09505098,18.0455725 8.89323008,17.9088551 8.7109375,17.7265625 L7.70507812,16.6230469 C7.03450186,15.8873661 6.28255625,15.0572963 5.44921875,14.1328125 C4.61588125,13.2083287 3.82487354,12.3359416 3.07617188,11.515625 C2.32747021,10.6953084 1.87500078,10.2005217 1.71875,10.03125 C1.14583047,9.45833047 0.716147266,8.81380566 0.4296875,8.09765625 C0.143227734,7.38150684 0,6.64909229 0,5.90039062 C0,5.15168896 0.143227734,4.41927441 0.4296875,3.703125 C0.716147266,2.98697559 1.14583047,2.34245078 1.71875,1.76953125 C2.26562773,1.22265352 2.86783525,0.828777246 3.52539062,0.587890625 C4.182946,0.347004004 4.88280879,0.2265625 5.625,0.2265625 Z" id="Heart---simple-line-icons"></path>
                </g>
            </g>
        </g>
    </g>
</svg>