<?xml version="1.0" encoding="UTF-8"?>
<svg width="24px" height="24px" viewBox="0 0 24 24" version="1.1" xmlns="http://www.w3.org/2000/svg" xmlns:xlink="http://www.w3.org/1999/xlink">
    <!-- Generator: Sketch 52.5 (67469) - http://www.bohemiancoding.com/sketch -->
    <title>icon_home</title>
    <desc>Created with Sketch.</desc>
    <g id="UI/UX-Workflow-LIAN-CHAT" stroke="none" stroke-width="1" fill="none" fill-rule="evenodd">
        <g id="03-Messages" transform="translate(-26.000000, -769.000000)" fill="#A1AAB1" fill-rule="nonzero">
            <g id="Tab-Bar" transform="translate(0.000000, 764.000000)">
                <g id="home">
                    <g id="icon">
                        <path d="M49.6986651,16.2368707 L38.853081,5.35446543 C38.6252992,5.12591661 38.3222777,5 38.0001478,5 C37.6778007,5 37.3747792,5.12580358 37.147106,5.35446543 L26.3014133,16.2368707 C25.938135,16.6012829 25.9805862,16.914605 26.0381288,17.0633539 C26.09578,17.2119898 26.2677563,17.4708309 26.7721769,17.4708309 L27.9933826,17.4708309 L27.9933826,27.1428995 C27.9933826,28.1495542 28.8267731,29 29.7704716,29 L35.2676347,29 L35.2676347,22.444198 L40.5876101,22.444198 L40.5876101,29 L46.2294983,29 C47.1762367,29 47.9704331,28.1321474 47.9704331,27.1428995 L47.9704331,17.4708309 L49.227793,17.4708309 C49.7322135,17.4708309 49.9040813,17.2119898 49.961841,17.0633539 C50.0193836,16.914605 50.0619434,16.6013959 49.6986651,16.2368707 Z" id="icon_home"></path>
                    </g>
                </g>
            </g>
        </g>
    </g>
</svg>