<?xml version="1.0" encoding="UTF-8"?>
<svg width="44px" height="45px" viewBox="0 0 44 45" version="1.1" xmlns="http://www.w3.org/2000/svg" xmlns:xlink="http://www.w3.org/1999/xlink">
    <!-- Generator: Sketch 52.5 (67469) - http://www.bohemiancoding.com/sketch -->
    <title>ion-happy-outline - Ionicons</title>
    <desc>Created with Sketch.</desc>
    <defs>
        <linearGradient x1="0%" y1="0%" x2="100%" y2="100%" id="linearGradient-1">
            <stop stop-color="#FFAF23" offset="0%"></stop>
            <stop stop-color="#FF6B23" offset="100%"></stop>
        </linearGradient>
    </defs>
    <g id="UI/UX-Workflow-LIAN-CHAT" stroke="none" stroke-width="1" fill="none" fill-rule="evenodd" font-family="Ionicons" font-size="50" font-weight="400">
        <g id="18.3--Help-Center" transform="translate(-166.000000, -210.000000)" fill="url(#linearGradient-1)">
            <g id="Date---Selector" transform="translate(70.000000, 169.000000)">
                <text id="ion-happy-outline---Ionicons">
                    <tspan x="96.125" y="82"></tspan>
                </text>
            </g>
        </g>
    </g>
</svg>