<?xml version="1.0" encoding="UTF-8"?>
<svg width="20px" height="20px" viewBox="0 0 20 20" version="1.1" xmlns="http://www.w3.org/2000/svg" xmlns:xlink="http://www.w3.org/1999/xlink">
    <!-- Generator: Sketch 52.5 (67469) - http://www.bohemiancoding.com/sketch -->
    <title>photo</title>
    <desc>Created with Sketch.</desc>
    <defs>
        <polygon id="path-1" points="0.000285714286 0.357142857 19.6428571 0.357142857 19.6428571 20 0.000285714286 20"></polygon>
    </defs>
    <g id="UI/UX-Workflow-LIAN-CHAT" stroke="none" stroke-width="1" fill="none" fill-rule="evenodd">
        <g id="12--Chat-Groups" transform="translate(-117.000000, -776.000000)">
            <g id="Group" transform="translate(0.000000, 756.000000)">
                <g id="tab-icons" transform="translate(27.000000, 19.000000)">
                    <g id="photo" transform="translate(90.333333, 1.000000)">
                        <g id="Group-3">
                            <mask id="mask-2" fill="white">
                                <use xlink:href="#path-1"></use>
                            </mask>
                            <g id="Clip-2"></g>
                            <path d="M16.753619,18.8434286 L2.88885714,18.8434286 C1.93171429,18.8434286 1.15552381,18.0672381 1.15552381,17.1110476 L1.15552381,15.0205714 L5.81838095,9.83961905 L12.1164762,15.5653333 L15.5993333,12.6615238 L18.4869524,15.0681905 L18.4869524,17.1091429 C18.486,18.0672381 17.7098095,18.8434286 16.753619,18.8434286 M2.88885714,1.512 L16.7545714,1.512 C17.7107619,1.512 18.4869524,2.28914286 18.4869524,3.24628571 L18.4869524,13.5662857 L15.5993333,11.1586667 L12.1488571,14.0339048 L5.73647619,8.20533333 L1.15552381,13.2939048 L1.15552381,3.24628571 C1.15552381,2.28914286 1.93171429,1.512 2.88885714,1.512 M16.753619,0.356761905 L2.88885714,0.356761905 C1.29647619,0.356761905 0.000285714286,1.65295238 0.000285714286,3.24628571 L0.000285714286,17.112 C0.000285714286,18.704381 1.29647619,20.0005714 2.88885714,20.0005714 L16.7545714,20.0005714 C18.3469524,20.0005714 19.6431429,18.704381 19.6431429,17.112 L19.6431429,3.24628571 C19.6431429,1.652 18.3469524,0.356761905 16.753619,0.356761905" id="Fill-1" fill="#98AAB0" mask="url(#mask-2)"></path>
                        </g>
                        <path d="M14,4.19980218 C14.9930762,4.19980218 15.8001978,5.00692384 15.8001978,6 C15.8001978,6.99307616 14.9930762,7.80019782 14,7.80019782 C13.0069238,7.80019782 12.1998022,6.99307616 12.1998022,6 C12.1998022,5.00692384 13.007913,4.19980218 14,4.19980218 M14,9 C15.6538081,9 17,7.65380811 17,6 C17,4.34619189 15.6538081,3 14,3 C12.3461919,3 11,4.34619189 11,6 C11,7.65380811 12.3461919,9 14,9" id="Fill-4" fill="#98AAB0"></path>
                    </g>
                </g>
            </g>
        </g>
    </g>
</svg>