<?xml version="1.0" encoding="UTF-8"?>
<svg width="26px" height="26px" viewBox="0 0 26 26" version="1.1" xmlns="http://www.w3.org/2000/svg" xmlns:xlink="http://www.w3.org/1999/xlink">
    <!-- Generator: Sketch 52.5 (67469) - http://www.bohemiancoding.com/sketch -->
    <title>send</title>
    <desc>Created with Sketch.</desc>
    <defs>
        <linearGradient x1="0%" y1="0%" x2="100%" y2="100%" id="linearGradient-1">
            <stop stop-color="#FF790E" offset="0%"></stop>
            <stop stop-color="#FF5858" offset="100%"></stop>
        </linearGradient>
        <polygon id="path-2" points="0 5 0 0 14 0 14 5 14 10 0 10"></polygon>
    </defs>
    <g id="UI/UX-Workflow-LIAN-CHAT" stroke="none" stroke-width="1" fill="none" fill-rule="evenodd">
        <g id="12--Chat-Groups" transform="translate(-329.000000, -771.000000)">
            <g id="Group" transform="translate(0.000000, 756.000000)">
                <g id="message-input" transform="translate(195.000000, 12.000000)">
                    <g id="send" transform="translate(134.000000, 3.000000)">
                        <circle id="Oval-2" fill="url(#linearGradient-1)" cx="13" cy="13" r="13"></circle>
                        <g id="arrow" transform="translate(13.000000, 13.000000) scale(-1, 1) translate(-13.000000, -13.000000) translate(6.000000, 8.000000)">
                            <g transform="translate(7.000000, 5.000000) scale(-1, 1) translate(-7.000000, -5.000000) ">
                                <mask id="mask-3" fill="white">
                                    <use xlink:href="#path-2"></use>
                                </mask>
                                <g id="Clip-2"></g>
                                <path d="M14,4.9966947 C13.9854815,4.81228291 13.9209259,4.59454369 13.8299259,4.47595358 L10.7188148,0.310024656 C10.4154815,-0.0599098325 9.94337037,-0.0929595353 9.625,0.179769945 C9.30662963,0.452499425 9.24907407,1.0107339 9.50340741,1.35150689 L11.6018519,4.16350891 L0.777777778,4.16350891 C0.348185185,4.16350891 0,4.53649841 0,4.9966947 C0,5.45689098 0.348185185,5.82988048 0.777777778,5.82988048 L11.6018519,5.82988048 L9.50340741,8.6418825 C9.24907407,8.98265549 9.31674074,9.52839218 9.625,9.81361945 C9.95996296,10.1235646 10.4642222,10.0241377 10.7188148,9.68336474 L13.8299259,5.51743581 C13.9616296,5.34468863 13.9976667,5.21804439 14,4.9966947" id="Fill-1" fill="#FFFFFF" mask="url(#mask-3)"></path>
                            </g>
                        </g>
                    </g>
                </g>
            </g>
        </g>
    </g>
</svg>