<?xml version="1.0" encoding="UTF-8"?>
<svg width="12px" height="13px" viewBox="0 0 12 13" version="1.1" xmlns="http://www.w3.org/2000/svg" xmlns:xlink="http://www.w3.org/1999/xlink">
    <!-- Generator: Sketch 52.5 (67469) - http://www.bohemiancoding.com/sketch -->
    <title>Shape</title>
    <desc>Created with Sketch.</desc>
    <g id="UI/UX-Workflow-LIAN-CHAT" stroke="none" stroke-width="1" fill="none" fill-rule="evenodd" fill-opacity="0.7">
        <g id="09.1--Serching-call" transform="translate(-74.000000, -300.000000)" fill="#26B04C">
            <g id="Call-2" transform="translate(21.000000, 272.000000)">
                <polygon id="Shape" points="65 29.538 63.872 28.41 54.6 37.682 54.6 32.41 53 32.41 53 40.41 61 40.41 61 38.81 55.728 38.81"></polygon>
            </g>
        </g>
    </g>
</svg>