<?xml version="1.0" encoding="UTF-8"?>
<svg width="27px" height="22px" viewBox="0 0 27 22" version="1.1" xmlns="http://www.w3.org/2000/svg" xmlns:xlink="http://www.w3.org/1999/xlink">
    <!-- Generator: Sketch 52.5 (67469) - http://www.bohemiancoding.com/sketch -->
    <title>sign-out - FontAwesome</title>
    <desc>Created with Sketch.</desc>
    <g id="UI/UX-Workflow-LIAN-CHAT" stroke="none" stroke-width="1" fill="none" fill-rule="evenodd" font-family="FontAwesome" font-size="30" font-weight="normal">
        <g id="12.3--Leave-Groups" transform="translate(-174.000000, -643.000000)" fill="#FF6B23">
            <g id="menu" transform="translate(0.000000, 611.000000)">
                <text id="sign-out---FontAwesome">
                    <tspan x="174" y="54"></tspan>
                </text>
            </g>
        </g>
    </g>
</svg>