<?xml version="1.0" encoding="UTF-8"?>
<svg width="49px" height="49px" viewBox="0 0 49 49" version="1.1" xmlns="http://www.w3.org/2000/svg" xmlns:xlink="http://www.w3.org/1999/xlink">
    <!-- Generator: Sketch 52.5 (67469) - http://www.bohemiancoding.com/sketch -->
    <title>Video</title>
    <desc>Created with Sketch.</desc>
    <defs>
        <circle id="path-1" cx="18" cy="18" r="18"></circle>
        <filter x="-30.6%" y="-22.2%" width="161.1%" height="161.1%" filterUnits="objectBoundingBox" id="filter-2">
            <feMorphology radius="0.5" operator="dilate" in="SourceAlpha" result="shadowSpreadOuter1"></feMorphology>
            <feOffset dx="0" dy="3" in="shadowSpreadOuter1" result="shadowOffsetOuter1"></feOffset>
            <feMorphology radius="1" operator="erode" in="SourceAlpha" result="shadowInner"></feMorphology>
            <feOffset dx="0" dy="3" in="shadowInner" result="shadowInner"></feOffset>
            <feComposite in="shadowOffsetOuter1" in2="shadowInner" operator="out" result="shadowOffsetOuter1"></feComposite>
            <feGaussianBlur stdDeviation="3" in="shadowOffsetOuter1" result="shadowBlurOuter1"></feGaussianBlur>
            <feColorMatrix values="0 0 0 0 0   0 0 0 0 0   0 0 0 0 0  0 0 0 0.152853261 0" type="matrix" in="shadowBlurOuter1"></feColorMatrix>
        </filter>
        <polygon id="path-3" points="22.32 6.48 22.32 12.96 0 12.96 0 6.48 0 0 22.32 0"></polygon>
    </defs>
    <g id="UI/UX-Workflow-LIAN-CHAT" stroke="none" stroke-width="1" fill="none" fill-rule="evenodd">
        <g id="05.1-Delete-conversation" transform="translate(-243.000000, -369.000000)">
            <g id="Body" transform="translate(-154.000000, 114.000000)">
                <g id="Most-recent" transform="translate(0.000000, 109.000000)">
                    <g id="CTA" transform="translate(344.000000, 149.000000)">
                        <g id="Video" transform="translate(60.000000, 0.000000)">
                            <g id="Oval-3" stroke-dasharray="5">
                                <use fill="black" fill-opacity="1" filter="url(#filter-2)" xlink:href="#path-1"></use>
                                <use stroke="#FFFFFF" stroke-width="1" xlink:href="#path-1"></use>
                            </g>
                            <g id="Page-1" transform="translate(7.200000, 11.520000)">
                                <mask id="mask-4" fill="white">
                                    <use xlink:href="#path-3"></use>
                                </mask>
                                <g id="Clip-2"></g>
                                <path d="M1.10086313,3.7958159 C1.10086313,2.30460251 2.33933416,1.08451883 3.85302096,1.08451883 L12.6048829,1.08451883 C14.1185697,1.08451883 15.3570407,2.30460251 15.3570407,3.7958159 L15.3570407,9.19129707 C15.3570407,10.6825105 14.1185697,11.9025941 12.6048829,11.9025941 L3.85302096,11.9025941 C2.33933416,11.9025941 1.10086313,10.6825105 1.10086313,9.19129707 L1.10086313,3.7958159 Z M20.9163995,1.70811715 C20.9989642,1.65389121 21.0540074,1.68100418 21.081529,1.70811715 C21.1090506,1.73523013 21.1916153,1.78945607 21.1916153,1.89790795 L21.1916153,11.0620921 C21.1916153,11.1705439 21.1090506,11.2247699 21.081529,11.2518828 C21.0264858,11.2789958 20.9714427,11.2789958 20.9163995,11.2518828 L16.4579038,8.40502092 L16.4579038,4.55497908 L20.9163995,1.70811715 Z M3.85302096,12.96 L12.6048829,12.96 C14.5589149,12.96 16.1551665,11.5230126 16.4303822,9.67933054 L20.3384464,12.1466109 C20.558619,12.2821757 20.7787916,12.3635146 21.0264858,12.3635146 C21.2466584,12.3635146 21.4393095,12.3092887 21.6319605,12.2008368 C22.0447842,11.9839331 22.32,11.5230126 22.32,11.0620921 L22.32,1.89790795 C22.32,1.40987448 22.0447842,0.976066946 21.6319605,0.75916318 C21.2191369,0.542259414 20.7237485,0.542259414 20.3384464,0.813389121 L16.4303822,3.28066946 C16.182688,1.43698745 14.5589149,0 12.6048829,0 L3.85302096,0 C1.73385943,0 0,1.70811715 0,3.7958159 L0,9.19129707 C0,11.2518828 1.70633785,12.96 3.85302096,12.96 Z" id="Fill-1" stroke="#FFFFFF" stroke-width="0.5" fill="#FFFFFF" mask="url(#mask-4)"></path>
                            </g>
                        </g>
                    </g>
                </g>
            </g>
        </g>
    </g>
</svg>