<?xml version="1.0" encoding="UTF-8"?>
<svg width="12px" height="20px" viewBox="0 0 12 20" version="1.1" xmlns="http://www.w3.org/2000/svg" xmlns:xlink="http://www.w3.org/1999/xlink">
    <!-- Generator: Sketch 52.5 (67469) - http://www.bohemiancoding.com/sketch -->
    <title>voice</title>
    <desc>Created with Sketch.</desc>
    <g id="UI/UX-Workflow-LIAN-CHAT" stroke="none" stroke-width="1" fill="none" fill-rule="evenodd">
        <g id="12--Chat-Groups" transform="translate(-161.000000, -776.000000)" fill="#98AAB0">
            <g id="Group" transform="translate(0.000000, 756.000000)">
                <g id="tab-icons" transform="translate(27.000000, 19.000000)">
                    <g id="voice" transform="translate(134.000000, 1.000000)">
                        <path d="M11.444393,6.91748153 C11.1376979,6.91748153 10.888786,7.16960957 10.888786,7.48026732 L10.888786,10.4903271 C10.888786,13.2206824 8.69524956,15.4422793 5.99944439,15.4422793 C3.30419483,15.4422793 1.111214,13.2206824 1.111214,10.4903271 L1.111214,7.48026732 C1.111214,7.16960957 0.862302065,6.91748153 0.555607001,6.91748153 C0.248911936,6.91748153 0,7.16960957 0,7.48026732 L0,10.4903271 C0,13.6514949 2.39522178,16.2557861 5.44383739,16.5408371 L5.44383739,18.8744284 L3.18835077,18.8744284 C2.88165571,18.8744284 2.63274377,19.1265565 2.63274377,19.4372142 C2.63274377,19.747872 2.88165571,20 3.18835077,20 L8.8097046,20 C9.11612186,20 9.3653116,19.747872 9.3653116,19.4372142 C9.3653116,19.1265565 9.11612186,18.8744284 8.8097046,18.8744284 L6.55505139,18.8744284 L6.55505139,16.5408371 C9.60422261,16.2560675 12,13.6514949 12,10.4903271 L12,7.48026732 C12,7.16932817 11.7510881,6.91748153 11.444393,6.91748153 Z M2.82303917,4.34301794 C2.82303917,2.56883574 4.24789332,1.12557158 5.99944439,1.12557158 C7.75127327,1.12557158 9.17640522,2.56883574 9.17640522,4.34301794 L9.17640522,10.2412944 C9.17640522,12.0154766 7.75127327,13.4587408 5.99944439,13.4587408 C4.24789332,13.4587408 2.82303917,12.0154766 2.82303917,10.2412944 L2.82303917,4.34301794 Z M5.99944439,14.5843123 C8.36382998,14.5843123 10.2876192,12.6359479 10.2876192,10.2412944 L10.2876192,4.34301794 C10.2876192,1.9483644 8.36382998,0 5.99944439,0 C3.63533661,0 1.71182517,1.9483644 1.71182517,4.34301794 L1.71182517,10.2412944 C1.71182517,12.6359479 3.63533661,14.5843123 5.99944439,14.5843123 Z" id="Fill-1"></path>
                    </g>
                </g>
            </g>
        </g>
    </g>
</svg>